<?xml version="1.0" encoding="UTF-8" standalone="no"?>
<!-- Created with Inkscape (http://www.inkscape.org/) -->

<svg
   xmlns:dc="http://purl.org/dc/elements/1.1/"
   xmlns:cc="http://creativecommons.org/ns#"
   xmlns:rdf="http://www.w3.org/1999/02/22-rdf-syntax-ns#"
   xmlns:svg="http://www.w3.org/2000/svg"
   xmlns="http://www.w3.org/2000/svg"
   xmlns:xlink="http://www.w3.org/1999/xlink"
   xmlns:sodipodi="http://sodipodi.sourceforge.net/DTD/sodipodi-0.dtd"
   xmlns:inkscape="http://www.inkscape.org/namespaces/inkscape"
   width="256"
   height="256"
   viewBox="0 0 128 128"
   version="1.1"
   id="svg8"
   inkscape:version="0.92.3 (2405546, 2018-03-11)"
   sodipodi:docname="Boots.svg">
  <defs
     id="defs2">
    <linearGradient
       id="linearGradient4776">
      <stop
         style="stop-color:#000000;stop-opacity:1;"
         offset="0"
         id="stop4778" />
      <stop
         style="stop-color:#000000;stop-opacity:0.49803922"
         offset="1"
         id="stop4781" />
    </linearGradient>
    <clipPath
       clipPathUnits="userSpaceOnUse"
       id="clipPath4573">
      <rect
         style="fill:none;fill-opacity:0.47560975;stroke:#ff0000;stroke-width:8;stroke-miterlimit:4;stroke-dasharray:none;stroke-dashoffset:0;stroke-opacity:1;paint-order:stroke markers fill"
         id="rect4575"
         width="136"
         height="120"
         x="0"
         y="396.77954" />
    </clipPath>
    <linearGradient
       inkscape:collect="always"
       xlink:href="#linearGradient4776"
       id="linearGradient4596"
       x1="116.52908"
       y1="0.85036755"
       x2="116.52908"
       y2="257.74652"
       gradientUnits="userSpaceOnUse" />
  </defs>
  <sodipodi:namedview
     id="base"
     pagecolor="#ffffff"
     bordercolor="#666666"
     borderopacity="1.0"
     inkscape:pageopacity="0.0"
     inkscape:pageshadow="2"
     inkscape:zoom="0.64"
     inkscape:cx="-20.364944"
     inkscape:cy="-1.8389871"
     inkscape:document-units="px"
     inkscape:current-layer="layer1"
     showgrid="true"
     units="px"
     inkscape:object-paths="true"
     inkscape:snap-intersection-paths="true"
     inkscape:snap-bbox="true"
     inkscape:bbox-paths="false"
     inkscape:snap-bbox-midpoints="false"
     inkscape:snap-smooth-nodes="true"
     inkscape:snap-midpoints="true"
     inkscape:window-width="1362"
     inkscape:window-height="721"
     inkscape:window-x="0"
     inkscape:window-y="45"
     inkscape:window-maximized="0"
     inkscape:object-nodes="true"
     inkscape:snap-nodes="true"
     inkscape:snap-others="true"
     inkscape:measure-start="0,0"
     inkscape:measure-end="0,0"
     showguides="true"
     inkscape:guide-bbox="true">
    <inkscape:grid
       type="xygrid"
       id="grid21"
       empspacing="16"
       dotted="false" />
    <inkscape:grid
       type="xygrid"
       id="grid1405"
       empspacing="1"
       color="#fe3fff"
       opacity="0.1254902"
       spacingx="128"
       spacingy="128"
       empcolor="#f73fff"
       empopacity="0.25098039" />
  </sodipodi:namedview>
  <metadata
     id="metadata5">
    <rdf:RDF>
      <cc:Work
         rdf:about="">
        <dc:format>image/svg+xml</dc:format>
        <dc:type
           rdf:resource="http://purl.org/dc/dcmitype/StillImage" />
        <dc:title></dc:title>
      </cc:Work>
    </rdf:RDF>
  </metadata>
  <g
     inkscape:label="Layer 1"
     inkscape:groupmode="layer"
     id="layer1"
     transform="translate(0,-396.77954)">
    <g
       id="g822" />
    <path
       style="opacity:1;fill:none;fill-opacity:1;stroke:url(#linearGradient4596);stroke-width:5;stroke-linecap:round;stroke-linejoin:round;stroke-miterlimit:4;stroke-dasharray:none;stroke-dashoffset:0;stroke-opacity:1;paint-order:normal"
       d="M 112 16 C 97.009548 16.32346 84.94186 23.68246 80 32 C 66.01502 37.11246 37.294266 32.1754 16 32 C 21.13602 95.87746 31.780673 119.84036 18.328125 162.72656 C 16.633218 168.37326 13.285991 178.58765 16.4375 195.58203 C 25.680069 195.21001 53.460742 190.15872 92.353516 198.4668 C 118.76077 204.10778 133.93163 209.39397 159.38086 211.18555 C 170.96635 212.00115 175.30801 211.55214 187.78516 210.16016 L 184.60742 172.58594 C 171.52574 171.6272 168.37014 172.4846 157.23828 163.03906 C 153.00945 159.6503 150.03099 148.50908 144 144 C 122.90858 131.17466 97.747918 95.89534 112 16 z M 88.339844 66.947266 A 8.2513046 8.1054382 0 0 1 96.589844 75.052734 A 8.2513046 8.1054382 0 0 1 88.339844 83.158203 A 8.2513046 8.1054382 0 0 1 80.087891 75.052734 A 8.2513046 8.1054382 0 0 1 88.339844 66.947266 z M 95.761719 99.955078 A 8.2513046 8.1054382 0 0 1 104.01172 108.06055 A 8.2513046 8.1054382 0 0 1 95.761719 116.16602 A 8.2513046 8.1054382 0 0 1 87.509766 108.06055 A 8.2513046 8.1054382 0 0 1 95.761719 99.955078 z M 110.21484 129.44727 A 8.2513046 8.1054382 0 0 1 118.46484 137.55273 A 8.2513046 8.1054382 0 0 1 110.21484 145.6582 A 8.2513046 8.1054382 0 0 1 101.96289 137.55273 A 8.2513046 8.1054382 0 0 1 110.21484 129.44727 z M 134.23828 149.95508 A 8.2513046 8.1054382 0 0 1 142.48828 158.06055 A 8.2513046 8.1054382 0 0 1 134.23828 166.16602 A 8.2513046 8.1054382 0 0 1 125.98633 158.06055 A 8.2513046 8.1054382 0 0 1 134.23828 149.95508 z M 202.17383 171.32422 C 199.13361 171.30068 195.85554 171.45181 192.33398 171.77539 L 195.82422 209.09961 C 210.86144 206.81469 227.67578 203.07786 234.25586 198.35352 C 233.15663 180.21898 223.45534 171.48898 202.17383 171.32422 z M 48.132812 203.82031 C 39.03589 203.93579 29.031717 205.10739 16 208 L 15.308594 236.54688 C 18.56137 236.7991 21.085062 236.91056 26.833984 237.20508 L 28.808594 231.67188 L 41.658203 232.07031 L 43.505859 237.64258 L 55.517578 237.41602 L 57.041016 231.70898 L 67.773438 231.66992 L 69.462891 237.39648 C 73.994129 237.20628 80.494594 236.92145 83.728516 236.68555 C 85.19024 236.57895 83.642887 223.61328 85.109375 223.58594 C 110.662 223.10946 117.91056 232.65138 141.97852 234.3457 C 170.68464 236.36654 226.95782 233.36398 240 224 L 240 208 C 216.74852 216.93876 185.60709 220.78113 158.14648 219.59961 C 135.00955 218.60429 109.14974 211.15322 95.861328 208.9668 C 75.933973 206.36923 63.29435 203.62785 48.132812 203.82031 z "
       transform="matrix(0.5,0,0,0.5,0,396.77954)"
       id="rect1381" />
    <path
       cx="952"
       cy="468.77954"
       r="48"
       id="path5244"
       style="opacity:1;fill:none;fill-opacity:1;stroke:#000000;stroke-width:2.5;stroke-linecap:round;stroke-linejoin:round;stroke-miterlimit:4;stroke-dasharray:none;stroke-dashoffset:0;stroke-opacity:1;paint-order:normal"
       d=""
       inkscape:connector-curvature="0" />
  </g>
</svg>
