{
    "IDSite"            : "pusa",
    "IDLang"            : "language_en",
    "IDLangDefault"     : "language_default",
    "IDContentStart"    : "index.html",
    "DefaultURL"        : {},
    "Optimize"          : "false",
    "Debug"             : "true",
    "Engine"            : "web",
    "SSLKey"            : "IT_MUST_BE_CREATE",
    "SSLMethod"         : "aes-256-cbc",
    "SSLLengthVector"   : "16"
}
